module gitlab.com/remotejob/gochatvuewsv3

go 1.14

require (
	github.com/fsnotify/fsnotify v1.4.9 // indirect
	github.com/go-acme/lego v2.7.2+incompatible
	github.com/go-chi/chi v4.1.2+incompatible
	github.com/gopherjs/gopherjs v0.0.0-20200217142428-fce0ec30dd00 // indirect
	github.com/gorilla/websocket v1.4.2
	github.com/kr/text v0.2.0 // indirect
	github.com/magiconair/properties v1.8.3 // indirect
	github.com/mitchellh/mapstructure v1.3.3 // indirect
	github.com/niemeyer/pretty v0.0.0-20200227124842-a10e7caefd8e // indirect
	github.com/pelletier/go-toml v1.8.1 // indirect
	github.com/rs/cors v1.7.0
	github.com/smartystreets/assertions v1.2.0 // indirect
	github.com/spf13/afero v1.4.0 // indirect
	github.com/spf13/cast v1.3.1 // indirect
	github.com/spf13/jwalterweatherman v1.1.0 // indirect
	github.com/spf13/pflag v1.0.5 // indirect
	github.com/spf13/viper v1.7.1
	github.com/stretchr/testify v1.6.1 // indirect
	golang.org/x/net v0.0.0-20200904194848-62affa334b73 // indirect
	golang.org/x/sys v0.0.0-20200918174421-af09f7315aff // indirect
	gopkg.in/check.v1 v1.0.0-20200902074654-038fdea0a05b // indirect
	gopkg.in/ini.v1 v1.61.0 // indirect
	gopkg.in/yaml.v2 v2.3.0 // indirect
	gopkg.in/yaml.v3 v3.0.0-20200615113413-eeeca48fe776 // indirect
)
